{
  "items": [
    {
      "id": 40610477,
      "name": "40610477",
      "price": 728.7,
      "totalBonus": 0.0,
      "createdOn": "2024-10-22T00:00:00",
      "orderStatus": "Received",
      "status": "Отримано",
      "statusGroup": "received",
      "seller": "PLAMBO",
      "quantity": 2,
      "type": "Marketplace",
      "deliveryId": 77,
      "goods": [
        "https://cdn.27.ua/sc--media--prod/default/e7/c1/79/e7c17926-f4e5-454d-8e1d-531bb242c802.jpg",
        "https://cdn.27.ua/sc--media--prod/default/e7/c1/79/e7c17926-f4e5-454d-8e1d-531bb242c802.jpg"
      ]
    },
    {
      "id": 39927773,
      "name": "39927773",
      "price": 161.46,
      "totalBonus": 0.0,
      "createdOn": "2024-10-04T00:00:00",
      "orderStatus": "Received",
      "status": "Отримано",
      "statusGroup": "received",
      "seller": "PLAMBO",
      "quantity": 1,
      "type": "Marketplace",
      "deliveryId": 79,
      "goods": [
        "https://cdn.27.ua/sc--media--prod/default/e7/c1/79/e7c17926-f4e5-454d-8e1d-531bb242c802.jpg"
      ]
    }
  ],
  "pageIndex": 2,
  "totalPages": 3,
  "totalCount": 22,
  "hasPreviousPage": true,
  "hasNextPage": false
}