{
  "meta": {
    "env": "prod",
    "worker": "gw1",
    "test_nodeid": "test_history_positive.py::test_list_info_params[page_10-limit_1-status_All-]",
    "user_type": "with_history",
    "request_id": "ffb04ccc36d01d32860404c2181dee01",
    "status_code": 200,
    "method": "GET",
    "url": "https://mobile-api.epicentrk.ua/api/v2/sales/orders/online?Page=10&Limit=1&Status=All&session_id=2uGjNA0IwYn7q7JksgVLS7DFDCx9B7YATFTl5912",
    "duration_ms": 334
  },
  "body": {
    "items": [
      {
        "id": 49105259,
        "name": "49105259",
        "price": 487.57,
        "totalBonus": 0.0,
        "createdOn": "2025-06-20T00:00:00",
        "orderStatus": "Canceled",
        "status": "Скасовано",
        "statusGroup": "canceled",
        "seller": "Епіцентр К",
        "quantity": 2,
        "type": "Online",
        "deliveryId": 45,
        "goods": [
          "https://cdn.27.ua/190/93/11/6853393_2.jpeg",
          "https://cdn.27.ua/190/1a/fb/137979_4.jpeg"
        ]
      }
    ],
    "pageIndex": 10,
    "totalPages": 22,
    "totalCount": 22,
    "hasPreviousPage": true,
    "hasNextPage": true
  }
}