INFO OnlineOrdersAPI:base_client.py:83 env=prod worker=gw1 test=tests/api/sales/orders/online/test_history_positive.py::TestListInfo::test_list_info_params[page_2-limit_10-status_All-] user=with_history req=223666f4 Sending GET to https://mobile-api.epicentrk.ua/api/v2/sales/orders/online | Params: {'Page': 2, 'Limit': 10, 'Status': 'All', 'session_id': '[MASKED]'} | Body: None
INFO OnlineOrdersAPI:base_client.py:96 env=prod worker=gw1 test=tests/api/sales/orders/online/test_history_positive.py::TestListInfo::test_list_info_params[page_2-limit_10-status_All-] user=with_history req=223666f4 Response JSON:
{
    "items": [
        {
            "id": 40610477,
            "name": "40610477",
            "price": 728.7,
            "totalBonus": 0.0,
            "createdOn": "2024-10-22T00:00:00",
            "orderStatus": "Received",
            "status": "Отримано",
            "statusGroup": "received",
            "seller": "PLAMBO",
            "quantity": 2,
            "type": "Marketplace",
            "deliveryId": 77,
            "goods": [
                "https://cdn.27.ua/sc--media--prod/default/e7/c1/79/e7c17926-f4e5-454d-8e1d-531bb242c802.jpg",
                "https://cdn.27.ua/sc--media--prod/default/e7/c1/79/e7c17926-f4e5-454d-8e1d-531bb242c802.jpg"
            ]
        },
        {
            "id": 39927773,
            "name": "39927773",
            "price": 161.46,
            "totalBonus": 0.0,
            "createdOn": "2024-10-04T00:00:00",
            "orderStatus": "Received",
            "status": "Отримано",
            "statusGroup": "received",
            "seller": "PLAMBO",
            "quantity": 1,
            "type": "Marketplace",
            "deliveryId": 79,
            "goods": [
                "https://cdn.27.ua/sc--media--prod/default/e7/c1/79/e7c17926-f4e5-454d-8e1d-531bb242c802.jpg"
            ]
        }
    ],
    "pageIndex": 2,
    "totalPages": 3,
    "totalCount": 22,
    "hasPreviousPage": true,
    "hasNextPage": false
}
INFO OnlineOrdersAPI:base_client.py:102 env=prod worker=gw1 test=tests/api/sales/orders/online/test_history_positive.py::TestListInfo::test_list_info_params[page_2-limit_10-status_All-] user=with_history req=223666f4 Request completed with status=200 in 311ms